EU/non-EU
…
data_corrected %>% filter(notified_country_EU != "EU") %>% pull(notified_country) %>% unique() %>% sort()

##  [1] "Argentina"                "Australia"               
##  [3] "Canada"                   "Hong Kong S.A.R."        
##  [5] "Iceland"                  "Israel"                  
##  [7] "Japan"                    "New Zealand"             
##  [9] "Nigeria"                  "Norway"                  
## [11] "Switzerland"              "United Kingdom"          
## [13] "United States of America"

# reports per country from EU countries
data_corrected %>% filter(origin_country_EU == "EU") %>% count(origin_country, sort = T)

## # A tibble: 28 x 2
##    origin_country     n
##    <chr>          <int>
##  1 France          2958
##  2 Belgium         1826
##  3 Poland          1700
##  4 Netherlands     1490
##  5 Spain           1472
##  6 Germany         1432
##  7 Italy           1340
##  8 Denmark          678
##  9 Hungary          324
## 10 Austria          272
## #  with 18 more rows

# reports per country from non-EU countries
data_corrected %>% filter(origin_country_EU != "EU") %>% count(origin_country, sort = T)

## # A tibble: 109 x 2
##    origin_country               n
##    <chr>                    <int>
##  1 Canada                    9754
##  2 United States of America  6842
##  3 United Kingdom            3130
##  4 China                     1760
##  5 Turkey                    1608
##  6 Brazil                    1320
##  7 India                     1218
##  8 Thailand                   802
##  9 Vietnam                    772
## 10 Australia                  472
## #  with 99 more rows
…
https://ec.europa.eu/food/sites/food/files/safety/docs/rasff_annual_report_2018.pdf

https://ec.europa.eu/food/sites/food/files/safety/docs/rasff_annual_report_2018_infograph.pdf

In 2018, 42% of RASFF notifications concerned controls at the outer EEA borders(6 ) at points of entry or border posts. When the consignment was not accepted for import (border control  consignment detained) a border rejection notification was made. In some cases, a sample was taken for analysis at the border yet the consignment was not held there but was forwarded to its destination under customs seals (border control  consignment under customs). This means that it should remain stored there until the result of the analysis is available.

https://ec.europa.eu/food/sites/food/files/safety/docs/rasff_country-fact-sheet_2018_gbr.pdf

# split the data source names into "name" and "country"
# RAFSS country will be "EU"

data_corrected %>% count(data_source, sort=T)

## # A tibble: 40 x 2
##    data_source                                        n
##    <chr>                                          <int>
##  1 RASFF Portal                                   22902
##  2 CDPH Recalls (Canada)                           8260
##  3 Food Poisoning Bulletin (US)                    3414
##  4 Ministry of Health - Border Rejections (Japan)  2824
##  5 FSA Alerts & Recalls (UK)                       2224
##  6 FDA Recalls (USA)                               1544
##  7 Product Recalls Website: Oulah (France)         1446
##  8 MAPAQ (Canada)                                  1210
##  9 AFSCA Recalls (Belgium)                         1062
## 10 USDA  (US)                                       824
## #  with 30 more rows

data_corrected <- data_corrected %>% 
  extract(data_source, into = c("data_source_name", "data_source_country"), "([^(]+)\\s+\\((.*).", remove =F) %>%
  mutate(data_source_country = ifelse(grepl("Hong Kong", data_source), "Hong Kong", data_source_country),
         data_source_name = ifelse(grepl("Hong Kong", data_source), data_source, data_source_name)) %>% 
  mutate(data_source_country = ifelse(grepl("Australia", data_source), "Australia", data_source_country),
         data_source_name = ifelse(grepl("Australia", data_source), data_source, data_source_name)) %>% 
  mutate(data_source_country = ifelse(grepl("RASFF", data_source), "EU", data_source_country),
         data_source_name = ifelse(grepl("RASFF", data_source), data_source, data_source_name)) %>% 
  mutate(data_source_country = ifelse(data_source_country == "US", "USA", data_source_country))

# alerts by country and source name
data_corrected %>% count(data_source_country, sort=T)

## # A tibble: 31 x 2
##    data_source_country     n
##    <chr>               <int>
##  1 EU                  22902
##  2 Canada               9470
##  3 USA                  5992
##  4 Japan                2824
##  5 UK                   2318
##  6 France               1458
##  7 Belgium              1062
##  8 Denmark               404
##  9 Netherlands           386
## 10 Australia             374
## #  with 21 more rows

data_corrected %>% count(data_source_name, sort=T)

## # A tibble: 37 x 2
##    data_source_name                             n
##    <chr>                                    <int>
##  1 "RASFF Portal"                           22902
##  2 "CDPH Recalls"                            8260
##  3 "Food Poisoning Bulletin"                 3414
##  4 "Ministry of Health - Border Rejections"  2824
##  5 "FSA Alerts & Recalls"                    2224
##  6 "FDA Recalls"                             1544
##  7 "Product Recalls Website: Oulah"          1446
##  8 "MAPAQ"                                   1210
##  9 "AFSCA Recalls"                           1062
## 10 "USDA "                                    824
## #  with 27 more rows
…
# EU countries reported most hazards in:
data_corrected %>% filter(data_source_country == "EU") %>% count(origin_country, sort=T)

## # A tibble: 135 x 2
##    origin_country     n
##    <chr>          <int>
##  1 Poland          1582
##  2 Turkey          1542
##  3 France          1328
##  4 Brazil          1274
##  5 Spain           1234
##  6 China           1142
##  7 India           1110
##  8 Netherlands     1084
##  9 Germany         1058
## 10 Italy           1028
## #  with 125 more rows
…
## # A tibble: 3 x 3
##   origin_country alert_type     n
##   <chr>          <chr>      <int>
## 1 United Kingdom recall        88
## 2 Iceland        recall         4
## 3 France         recall         2

# UK notifications within RAFSS include a variety of things outside the UK

# notified by the UK; grouped by alert type +  by country of origin
data_corrected %>% filter(data_source_name == "RASFF Portal") %>% 
                   filter(notified_country_EU == "UK") %>% 
                   count(origin_country, alert_type, sort=T)

## # A tibble: 152 x 3
##    origin_country alert_type                    n
##    <chr>          <chr>                     <int>
##  1 India          border rejection            350
##  2 United Kingdom alert                       206
##  3 Brazil         border rejection            178
##  4 China          border rejection            122
##  5 Ghana          border rejection            122
##  6 United Kingdom information for attention   120
##  7 Nigeria        border rejection            116
##  8 Thailand       border rejection             76
##  9 Turkey         border rejection             62
## 10 China          information for attention    56
## #  with 142 more rows

#notified by the UK; just by country of origin
data_corrected %>% filter(data_source_name == "RASFF Portal") %>% 
                   filter(notified_country_EU == "UK") %>% 
                   count(origin_country, sort=T)

## # A tibble: 81 x 2
##    origin_country               n
##    <chr>                    <int>
##  1 India                      390
##  2 United Kingdom             370
##  3 China                      196
##  4 Brazil                     190
##  5 Ghana                      124
##  6 Nigeria                    120
##  7 Turkey                     106
##  8 Thailand                    98
##  9 United States of America    94
## 10 Germany                     42
## #  with 71 more rows
…
## # A tibble: 3 x 2
##   origin_country_EU     n
##   <chr>             <int>
## 1 non_EU             1810
## 2 UK                  370
## 3 EU                  204

# these countries with RAFSS notify about hazards from UK
data_corrected %>% filter(data_source_name == "RASFF Portal") %>% 
                   filter(origin_country_EU == "UK") %>% 
                   count(notified_country, sort=T)

## # A tibble: 27 x 2
##    notified_country     n
##    <chr>            <int>
##  1 United Kingdom     370
##  2 Ireland             48
##  3 Sweden              46
##  4 Italy               44
##  5 Netherlands         44
##  6 Germany             40
##  7 France              34
##  8 Spain               24
##  9 Denmark             22
## 10 Poland              18
## #  with 17 more rows
…
data_corrected %>% filter(notified_country == "Norway") %>% 
                   filter(data_source_country== "EU") %>% 
                   count(origin_country, sort=T)

## # A tibble: 35 x 2
##    origin_country               n
##    <chr>                    <int>
##  1 United States of America    50
##  2 Thailand                    28
##  3 China                       24
##  4 Turkey                      22
##  5 India                       20
##  6 Sweden                      16
##  7 Laos                        14
##  8 Norway                      14
##  9 Argentina                   12
## 10 Italy                       12
## #  with 25 more rows
…
## # A tibble: 3 x 2
##   origin_country     n
##   <chr>          <int>
## 1 Switzerland       94
## 2 France             6
## 3 Vietnam            2

data_corrected %>% filter(notified_country == "Switzerland") %>% 
                   filter(data_source_country== "EU") %>% 
                   count(origin_country, sort=T)

## # A tibble: 34 x 2
##    origin_country               n
##    <chr>                    <int>
##  1 Turkey                      26
##  2 Thailand                    22
##  3 Italy                       20
##  4 Switzerland                 20
##  5 Vietnam                     20
##  6 Germany                     18
##  7 Netherlands                 18
##  8 France                      16
##  9 India                       16
## 10 United States of America    16
## #  with 24 more rows
