EDA_plastic
…
foreign_all<-bind_rows(foreign, foreign_extra) 
dim(foreign_all)

## [1] 2126   35

foreign_all %>% count(origin_country, sort=T)

## # A tibble: 78 x 2
##    origin_country               n
##    <chr>                    <int>
##  1 Canada                     542
##  2 United States of America   240
##  3 United Kingdom             216
##  4 Germany                    166
##  5 France                     156
##  6 Belgium                     94
##  7 Netherlands                 87
##  8 Italy                       76
##  9 Denmark                     64
## 10 Austria                     38
## #  with 68 more rows

foreign_all %>% count(notified_country, sort=T)

## # A tibble: 35 x 2
##    notified_country             n
##    <chr>                    <int>
##  1 Canada                     532
##  2 United States of America   298
##  3 United Kingdom             241
##  4 Germany                    216
##  5 France                     141
##  6 Denmark                    119
##  7 Netherlands                 83
##  8 Belgium                     82
##  9 Italy                       75
## 10 Austria                     36
## #  with 25 more rows
…
foreign_all %>% count(product_categoty, sort=T)

## # A tibble: 31 x 2
##    product_categoty                                 n
##    <chr>                                        <int>
##  1 fruits and vegetables                          380
##  2 meat and meat products (other than poultry)    303
##  3 cereals and bakery products                    261
##  4 poultry meat and poultry meat products         176
##  5 <NA>                                           175
##  6 milk and milk products                         160
##  7 nuts; nut products and seeds                   119
##  8 prepared dishes and snacks                      91
##  9 cocoa and cocoa preparations; coffee and tea    79
## 10 soups; broths; sauces and condiments            71
## #  with 21 more rows
…
