Food hazards - allergens
…
Food hazards - allergens

Marina Vabistsevits

09/08/2020

data_all<-read_csv("../data/tidy/food_hazards_data_all.csv")

data_all %>% count(hazard_group, sort=T)

## # A tibble: 35 x 2
##    hazard_group                       n
##    <chr>                          <int>
##  1 microbial contaminants (other)  5825
##  2 pathogenic micro-organisms      5583
##  3 allergens                       5217
##  4 <NA>                            3171
##  5 foreign bodies                  1896
##  6 composition                     1536
##  7 poor or insufficient controls   1192
##  8 pesticide residues              1149
##  9 heavy metals                     869
## 10 Fraud                            783
## #  with 25 more rows

data_all %>% filter(hazard_group ==  "allergens") %>%  count(hazard_description, sort=T)

## # A tibble: 650 x 2
##    hazard_description            n
##    <chr>                     <int>
##  1 allergen  milk              610
##  2 allergen  egg               327
##  3 undeclared milk             234
##  4 milk or milk constituents   220
##  5 undeclared allergens        220
##  6 allergen  mustard           148
##  7 mustard                     131
##  8 undeclared sesame           130
##  9 undeclared wheat            119
## 10 sulphite undeclared         114
## #  with 640 more rows
…
write_csv(allergens_all, "../data/tidy/food_hazards_data_allergens_tidy.csv")  
  
allergens_all %>%   count(hazard_type, sort=T)

## # A tibble: 24 x 2
##    hazard_type                         n
##    <chr>                           <int>
##  1 milk                             1593
##  2 egg                               706
##  3 mustard                           404
##  4 gluten                            316
##  5 wheat                             313
##  6 peanut                            290
##  7 other/unknown allergic reaction   255
##  8 sesame                            240
##  9 sulphite                          238
## 10 unnamed nuts                      181
## #  with 14 more rows
…
